{"organisationUnits":[{"code":"OU_222702","name":" Panderu MCHP","created":"2012-02-17T14:54:39.987+0000","lastUpdated":"2012-02-17T14:54:39.987+0000","level":4,"href":"http://apps.dhis2.org/demo/api/organisationUnits/ueuQlqb8ccl","id":"ueuQlqb8ccl"},{"code":"OU_651071","name":"Adonkia CHP","created":"2012-02-17T14:54:39.987+0000","lastUpdated":"2012-02-17T14:54:39.987+0000","level":4,"href":"http://apps.dhis2.org/demo/api/organisationUnits/Rp268JB6Ne4","id":"Rp268JB6Ne4"},{"code":"OU_278371","name":"Afro Arab Clinic","created":"2012-02-17T14:54:39.987+0000","lastUpdated":"2012-02-17T14:54:39.987+0000","level":4,"href":"http://apps.dhis2.org/demo/api/organisationUnits/cDw53Ej8rju","id":"cDw53Ej8rju"},{"code":"OU_678892","name":"Agape CHP","created":"2012-02-17T14:54:39.987+0000","lastUpdated":"2012-02-17T14:54:39.987+0000","level":4,"href":"http://apps.dhis2.org/demo/api/organisationUnits/GvFqTavdpGE","id":"GvFqTavdpGE"},{"code":"OU_211234","name":"Ahamadyya Mission Cl","created":"2012-02-17T14:54:39.987+0000","lastUpdated":"2012-02-17T14:54:39.987+0000","level":4,"href":"http://apps.dhis2.org/demo/api/organisationUnits/plnHVbJR6p4","id":"plnHVbJR6p4"},{"code":"OU_268246","name":"Ahmadiyya Muslim Hospital","created":"2012-02-17T14:54:39.987+0000","lastUpdated":"2012-02-17T14:54:39.987+0000","level":4,"href":"http://apps.dhis2.org/demo/api/organisationUnits/BV4IomHvri4","id":"BV4IomHvri4"},{"code":"OU_255017","name":"Air Port Centre, Lungi","created":"2012-02-17T14:54:39.987+0000","lastUpdated":"2012-02-17T14:54:39.987+0000","level":4,"href":"http://apps.dhis2.org/demo/api/organisationUnits/qjboFI0irVu","id":"qjboFI0irVu"},{"code":"OU_226272","name":"Alkalia CHP","created":"2012-02-17T14:54:39.987+0000","lastUpdated":"2012-02-17T14:54:39.987+0000","level":4,"href":"http://apps.dhis2.org/demo/api/organisationUnits/dWOAzMcK2Wt","id":"dWOAzMcK2Wt"},{"code":"OU_278337","name":"Allen Town Health Post","created":"2012-02-17T14:54:39.987+0000","lastUpdated":"2012-02-17T14:54:39.987+0000","level":4,"href":"http://apps.dhis2.org/demo/api/organisationUnits/kbGqmM6ZWWV","id":"kbGqmM6ZWWV"},{"code":"OU_278314","name":"Approved School CHP","created":"2012-02-17T14:54:39.987+0000","lastUpdated":"2012-02-17T14:54:39.987+0000","level":4,"href":"http://apps.dhis2.org/demo/api/organisationUnits/eoYV2p74eVz","id":"eoYV2p74eVz"},{"code":"OU_233378","name":"Arab Clinic","created":"2012-02-17T14:54:39.987+0000","lastUpdated":"2012-02-17T14:54:39.987+0000","level":4,"href":"http://apps.dhis2.org/demo/api/organisationUnits/nq7F0t1Pz6t","id":"nq7F0t1Pz6t"},{"code":"OU_197440","name":"BMC","created":"2012-02-17T14:54:39.987+0000","lastUpdated":"2012-02-17T14:54:39.987+0000","level":3,"href":"http://apps.dhis2.org/demo/api/organisationUnits/ENHOJz3UH5L","id":"ENHOJz3UH5L"},{"code":"OU_222681","name":"Baama CHC","created":"2012-02-17T14:54:39.987+0000","lastUpdated":"2012-02-17T14:54:39.987+0000","level":4,"href":"http://apps.dhis2.org/demo/api/organisationUnits/r5WWF9WDzoa","id":"r5WWF9WDzoa"},{"code":"OU_254991","name":"Babara CHC","created":"2012-02-17T14:54:39.987+0000","lastUpdated":"2012-02-17T14:54:39.987+0000","level":4,"href":"http://apps.dhis2.org/demo/api/organisationUnits/yMCshbaVExv","id":"yMCshbaVExv"},{"code":"OU_758905","name":"Badala MCHP","created":"2012-02-17T14:54:39.987+0000","lastUpdated":"2012-02-17T14:54:39.987+0000","level":4,"href":"http://apps.dhis2.org/demo/api/organisationUnits/tlMeFk8C4CG","id":"tlMeFk8C4CG"},{"code":"OU_539","name":"Badjia","created":"2012-02-17T14:54:39.987+0000","lastUpdated":"2012-02-17T14:54:39.987+0000","level":3,"href":"http://apps.dhis2.org/demo/api/organisationUnits/YuQRtpLP10I","id":"YuQRtpLP10I"},{"code":"OU_226243","name":"Bafodia CHC","created":"2012-02-17T14:54:39.987+0000","lastUpdated":"2012-02-17T14:54:39.987+0000","level":4,"href":"http://apps.dhis2.org/demo/api/organisationUnits/Jiymtq0A01x","id":"Jiymtq0A01x"},{"code":"OU_247049","name":"Bagruwa","created":"2012-02-17T14:54:39.987+0000","lastUpdated":"2012-02-17T14:54:39.987+0000","level":3,"href":"http://apps.dhis2.org/demo/api/organisationUnits/jPidqyo7cpF","id":"jPidqyo7cpF"},{"code":"OU_255019","name":"Bai Bureh Memorial Hospital","created":"2012-02-17T14:54:39.987+0000","lastUpdated":"2012-02-17T14:54:39.987+0000","level":4,"href":"http://apps.dhis2.org/demo/api/organisationUnits/BH7rDkWjUqc","id":"BH7rDkWjUqc"},{"code":"OU_246994","name":"Bai Largo MCHP","created":"2012-02-17T14:54:39.987+0000","lastUpdated":"2012-02-17T14:54:39.987+0000","level":4,"href":"http://apps.dhis2.org/demo/api/organisationUnits/Rll4VmTDRiE","id":"Rll4VmTDRiE"},{"code":"OU_233331","name":"Baiama CHP","created":"2012-02-17T14:54:39.987+0000","lastUpdated":"2012-02-17T14:54:39.987+0000","level":4,"href":"http://apps.dhis2.org/demo/api/organisationUnits/XtuhRhmbrJM","id":"XtuhRhmbrJM"},{"code":"OU_204914","name":"Baiima CHP","created":"2012-02-17T14:54:39.987+0000","lastUpdated":"2012-02-17T14:54:39.987+0000","level":4,"href":"http://apps.dhis2.org/demo/api/organisationUnits/c41XRVOYNJm","id":"c41XRVOYNJm"},{"code":"OU_254996","name":"Bailor CHP","created":"2012-02-17T14:54:39.987+0000","lastUpdated":"2012-02-17T14:54:39.987+0000","level":4,"href":"http://apps.dhis2.org/demo/api/organisationUnits/Eyj2kiEJ7M3","id":"Eyj2kiEJ7M3"},{"code":"OU_204923","name":"Baiwala CHP","created":"2012-02-17T14:54:39.987+0000","lastUpdated":"2012-02-17T14:54:39.987+0000","level":4,"href":"http://apps.dhis2.org/demo/api/organisationUnits/HFyjUvMjQ8H","id":"HFyjUvMjQ8H"},{"code":"OU_268228","name":"Bakeloko CHP","created":"2012-02-17T14:54:39.987+0000","lastUpdated":"2012-02-17T14:54:39.987+0000","level":4,"href":"http://apps.dhis2.org/demo/api/organisationUnits/MHAWZr2Caxw","id":"MHAWZr2Caxw"},{"code":"OU_222633","name":"Bambara Kaima CHP","created":"2012-02-17T14:54:39.987+0000","lastUpdated":"2012-02-17T14:54:39.987+0000","level":4,"href":"http://apps.dhis2.org/demo/api/organisationUnits/LOpWauwwghf","id":"LOpWauwwghf"},{"code":"OU_222679","name":"Bambara MCHP","created":"2012-02-17T14:54:39.987+0000","lastUpdated":"2012-02-17T14:54:39.987+0000","level":4,"href":"http://apps.dhis2.org/demo/api/organisationUnits/mUuCjQWMaOc","id":"mUuCjQWMaOc"},{"code":"OU_222723","name":"Bambawolo CHP","created":"2012-02-17T14:54:39.987+0000","lastUpdated":"2012-02-17T14:54:39.987+0000","level":4,"href":"http://apps.dhis2.org/demo/api/organisationUnits/TNbHYOuQi8s","id":"TNbHYOuQi8s"},{"code":"OU_247021","name":"Bambuibu Tommy MCHP","created":"2012-02-17T14:54:39.987+0000","lastUpdated":"2012-02-17T14:54:39.987+0000","level":4,"href":"http://apps.dhis2.org/demo/api/organisationUnits/aSfF9kuNINJ","id":"aSfF9kuNINJ"},{"code":"OU_758923","name":"Bambukoro MCHP","created":"2012-02-17T14:54:39.987+0000","lastUpdated":"2012-02-17T14:54:39.987+0000","level":4,"href":"http://apps.dhis2.org/demo/api/organisationUnits/wYLjA4vN6Y9","id":"wYLjA4vN6Y9"},{"code":"OU_278384","name":"Banana Island MCHP","created":"2012-02-17T14:54:39.987+0000","lastUpdated":"2012-02-17T14:54:39.987+0000","level":4,"href":"http://apps.dhis2.org/demo/api/organisationUnits/jjtzkzrmG7s","id":"jjtzkzrmG7s"},{"code":"OU_260387","name":"Bandajuma Clinic CHC","created":"2012-02-17T14:54:39.987+0000","lastUpdated":"2012-02-17T14:54:39.987+0000","level":4,"href":"http://apps.dhis2.org/demo/api/organisationUnits/FNnj3jKGS7i","id":"FNnj3jKGS7i"},{"code":"OU_204882","name":"Bandajuma Kpolihun CHP","created":"2012-02-17T14:54:39.987+0000","lastUpdated":"2012-02-17T14:54:39.987+0000","level":4,"href":"http://apps.dhis2.org/demo/api/organisationUnits/ABM75Q1UfoP","id":"ABM75Q1UfoP"},{"code":"OU_1029","name":"Bandajuma MCHP","created":"2012-02-17T14:54:39.987+0000","lastUpdated":"2012-02-17T14:54:39.987+0000","level":4,"href":"http://apps.dhis2.org/demo/api/organisationUnits/rx9ubw0UCqj","id":"rx9ubw0UCqj"},{"code":"OU_204896","name":"Bandajuma Sinneh MCHP","created":"2012-02-17T14:54:39.987+0000","lastUpdated":"2012-02-17T14:54:39.987+0000","level":4,"href":"http://apps.dhis2.org/demo/api/organisationUnits/OZ1olxsTyNa","id":"OZ1olxsTyNa"},{"code":"OU_204938","name":"Bandajuma Yawei CHC","created":"2012-02-17T14:54:39.987+0000","lastUpdated":"2012-02-17T14:54:39.987+0000","level":4,"href":"http://apps.dhis2.org/demo/api/organisationUnits/MpcMjLmbATv","id":"MpcMjLmbATv"},{"code":"OU_758919","name":"Bandakarifaia MCHP","created":"2012-02-17T14:54:39.987+0000","lastUpdated":"2012-02-17T14:54:39.987+0000","level":4,"href":"http://apps.dhis2.org/demo/api/organisationUnits/qO2JLjYrg91","id":"qO2JLjYrg91"},{"code":"OU_758913","name":"Bandaperie CHP","created":"2012-02-17T14:54:39.987+0000","lastUpdated":"2012-02-17T14:54:39.987+0000","level":4,"href":"http://apps.dhis2.org/demo/api/organisationUnits/U7yKrx2QVet","id":"U7yKrx2QVet"},{"code":"OU_260436","name":"Bandasuma CHP","created":"2012-02-17T14:54:39.987+0000","lastUpdated":"2012-02-17T14:54:39.987+0000","level":4,"href":"http://apps.dhis2.org/demo/api/organisationUnits/uPshwz3B3Uu","id":"uPshwz3B3Uu"},{"code":"OU_233360","name":"Bandasuma Fiama MCHP","created":"2012-02-17T14:54:39.987+0000","lastUpdated":"2012-02-17T14:54:39.987+0000","level":4,"href":"http://apps.dhis2.org/demo/api/organisationUnits/aF6iPGbrcRk","id":"aF6iPGbrcRk"},{"code":"OU_222649","name":"Bandawor MCHP","created":"2012-02-17T14:54:39.987+0000","lastUpdated":"2012-02-17T14:54:39.987+0000","level":4,"href":"http://apps.dhis2.org/demo/api/organisationUnits/lpAPY3QOY2D","id":"lpAPY3QOY2D"},{"code":"OU_233318","name":"Bandusuma MCHP","created":"2012-02-17T14:54:39.987+0000","lastUpdated":"2012-02-17T14:54:39.987+0000","level":4,"href":"http://apps.dhis2.org/demo/api/organisationUnits/t1aAdpBbDB3","id":"t1aAdpBbDB3"},{"code":"OU_233374","name":"Bangambaya MCHP","created":"2012-02-17T14:54:39.987+0000","lastUpdated":"2012-02-17T14:54:39.987+0000","level":4,"href":"http://apps.dhis2.org/demo/api/organisationUnits/xQIU41mR69s","id":"xQIU41mR69s"},{"code":"OU_543045","name":"Bangoma MCHP","created":"2012-02-17T14:54:39.987+0000","lastUpdated":"2012-02-17T14:54:39.987+0000","level":4,"href":"http://apps.dhis2.org/demo/api/organisationUnits/pdF4XIHIGPx","id":"pdF4XIHIGPx"},{"code":"OU_211259","name":"Banka Makuloh MCHP","created":"2012-02-17T14:54:39.987+0000","lastUpdated":"2012-02-17T14:54:39.987+0000","level":4,"href":"http://apps.dhis2.org/demo/api/organisationUnits/rxc497GUdDt","id":"rxc497GUdDt"},{"code":"OU_540","name":"Baoma","created":"2012-02-17T14:54:39.987+0000","lastUpdated":"2012-02-17T14:54:39.987+0000","level":3,"href":"http://apps.dhis2.org/demo/api/organisationUnits/vWbkYPRmKyS","id":"vWbkYPRmKyS"},{"code":"OU_222647","name":"Baoma (Koya) CHC","created":"2012-02-17T14:54:39.987+0000","lastUpdated":"2012-02-17T14:54:39.987+0000","level":4,"href":"http://apps.dhis2.org/demo/api/organisationUnits/Yj2ni275yPJ","id":"Yj2ni275yPJ"},{"code":"OU_204909","name":"Baoma (Luawa) MCHP","created":"2012-02-17T14:54:39.987+0000","lastUpdated":"2012-02-17T14:54:39.987+0000","level":4,"href":"http://apps.dhis2.org/demo/api/organisationUnits/TQ5DSmdliN7","id":"TQ5DSmdliN7"},{"code":"OU_197446","name":"Baoma Kpenge CHP","created":"2012-02-17T14:54:39.987+0000","lastUpdated":"2012-02-17T14:54:39.987+0000","level":4,"href":"http://apps.dhis2.org/demo/api/organisationUnits/a1dP5m3Clw4","id":"a1dP5m3Clw4"},{"code":"OU_233393","name":"Baoma MCHP","created":"2012-02-17T14:54:39.987+0000","lastUpdated":"2012-02-17T14:54:39.987+0000","level":4,"href":"http://apps.dhis2.org/demo/api/organisationUnits/t52CJEyLhch","id":"t52CJEyLhch"}],"pager":{"page":1,"total":1332,"pageSize":50,"nextPage":"http://apps.dhis2.org/demo/api/organisationUnits?page=2","pageCount":27}}